…
`output = command(dataframe, option1, option2, ... )`

Each command has a series of arguments. The first argument is the dataframe you are going to manipulate. The second argument and each following argument describes an option about what you can do with the data frame. The output from this command is a new data frame. If you do not have an output variable specified, it will just output the results to the console.

##Using `filter()` to select rows

The `filter()` command selects a subset of the rows from a data frame. The first argument is the data frame itself. Each argument afterward is a *comparison* expression which says which rows to select. Here is one example, which selects all the flights which left in March:


```r
filter(flights, month == 3)
```

```
## # A tibble: 28,834 x 19
##     year month   day dep_time sched_dep_time dep_delay arr_time
##    <int> <int> <int>    <int>          <int>     <dbl>    <int>
##  1  2013     3     1        4           2159       125      318
##  2  2013     3     1       50           2358        52      526
##  3  2013     3     1      117           2245       152      223
##  4  2013     3     1      454            500        -6      633
##  5  2013     3     1      505            515       -10      746
##  6  2013     3     1      521            530        -9      813
##  7  2013     3     1      537            540        -3      856
##  8  2013     3     1      541            545        -4     1014
##  9  2013     3     1      549            600       -11      639
## 10  2013     3     1      550            600       -10      747
## # ... with 28,824 more rows, and 12 more variables: sched_arr_time <int>,
## #   arr_delay <dbl>, carrier <chr>, flight <int>, tailnum <chr>,
## #   origin <chr>, dest <chr>, air_time <dbl>, distance <dbl>, hour <dbl>,
## #   minute <dbl>, time_hour <dttm>
```
…
&nbsp;

&nbsp;

You may want to select rows that fit more than one condition. If you add more than one argument to `filter()`, the command will select rows where all of the conditions are true. For instance, if I want to select flights which left on July 4th, I want flights where `month == 7` AND `day == 4`. To do this, I just list the two arguments, separating them with commas. There is no limit as to how many of these I can list.

For example, the following selects all the flights which left from JFK on July 4th in the morning, before noon.


```r
filter(flights, month == 7, day == 4, origin == "JFK", dep_time < 1200)
```

```
## # A tibble: 104 x 19
##     year month   day dep_time sched_dep_time dep_delay arr_time
##    <int> <int> <int>    <int>          <int>     <dbl>    <int>
##  1  2013     7     4       11           2359        12      400
##  2  2013     7     4       59           2359        60      501
##  3  2013     7     4      538            540        -2      835
##  4  2013     7     4      539            545        -6      918
##  5  2013     7     4      553            600        -7      659
##  6  2013     7     4      556            600        -4      834
##  7  2013     7     4      602            605        -3      830
##  8  2013     7     4      609            610        -1      902
##  9  2013     7     4      611            615        -4      754
## 10  2013     7     4      615            611         4      952
## # ... with 94 more rows, and 12 more variables: sched_arr_time <int>,
## #   arr_delay <dbl>, carrier <chr>, flight <int>, tailnum <chr>,
## #   origin <chr>, dest <chr>, air_time <dbl>, distance <dbl>, hour <dbl>,
## #   minute <dbl>, time_hour <dttm>
```
…
&nbsp;

&nbsp;

The final thing you may want to do with the `filter()` command is to remove or look at missing data. Missing data is listed in R as `NA`. However, you cannot choose observations that are missing by using a comparison operator. Typing `data == NA` will not work. R has the `is.na()` command to test for missing data.

For instance, to choose flights with a missing departure time, I would type:


```r
filter(flights, is.na(dep_time))
```

```
## # A tibble: 8,255 x 19
##     year month   day dep_time sched_dep_time dep_delay arr_time
##    <int> <int> <int>    <int>          <int>     <dbl>    <int>
##  1  2013     1     1       NA           1630        NA       NA
##  2  2013     1     1       NA           1935        NA       NA
##  3  2013     1     1       NA           1500        NA       NA
##  4  2013     1     1       NA            600        NA       NA
##  5  2013     1     2       NA           1540        NA       NA
##  6  2013     1     2       NA           1620        NA       NA
##  7  2013     1     2       NA           1355        NA       NA
##  8  2013     1     2       NA           1420        NA       NA
##  9  2013     1     2       NA           1321        NA       NA
## 10  2013     1     2       NA           1545        NA       NA
## # ... with 8,245 more rows, and 12 more variables: sched_arr_time <int>,
## #   arr_delay <dbl>, carrier <chr>, flight <int>, tailnum <chr>,
## #   origin <chr>, dest <chr>, air_time <dbl>, distance <dbl>, hour <dbl>,
## #   minute <dbl>, time_hour <dttm>
```
…
The classic way to create new variables using mathematical functions or other functions is to use the `dataframe$variable` notation and create math functions based on this.

The dplyr function as part of the tidyverse uses a different way to do this and uses the mutate function. In this section, I will mention how you could use both, and you can choose which one you would prefer.

For instance, I may want to create a new variable which lists the minutes since midnight each flight takes off. The flights dataframe has the variable `hour` which lists the hour that each flight took off and the variable `minute` which lists the minutes. 

The mutate command uses the following logic. It starts with the data frame, then has a statement which is the name of the new variable equal to a command. To calculate the number of minutes since midnight using the mutate command, I would type:


```r
mutate(flights, mins_midnight = hour*60 + minute)
```

```
## # A tibble: 336,776 x 20
##     year month   day dep_time sched_dep_time dep_delay arr_time
##    <int> <int> <int>    <int>          <int>     <dbl>    <int>
##  1  2013     1     1      517            515         2      830
##  2  2013     1     1      533            529         4      850
##  3  2013     1     1      542            540         2      923
##  4  2013     1     1      544            545        -1     1004
##  5  2013     1     1      554            600        -6      812
##  6  2013     1     1      554            558        -4      740
##  7  2013     1     1      555            600        -5      913
##  8  2013     1     1      557            600        -3      709
##  9  2013     1     1      557            600        -3      838
## 10  2013     1     1      558            600        -2      753
## # ... with 336,766 more rows, and 13 more variables: sched_arr_time <int>,
## #   arr_delay <dbl>, carrier <chr>, flight <int>, tailnum <chr>,
## #   origin <chr>, dest <chr>, air_time <dbl>, distance <dbl>, hour <dbl>,
## #   minute <dbl>, time_hour <dttm>, mins_midnight <dbl>
```
…
